…
GDP_data_wide <- GDP_data_wide %>% 
  mutate(GDP_cal = Gross_capital_formation + Government_expenditure + Household_expenditure + Exports - Imports, Gross_Domestic_Product)

GDP_data_wide$GDP_cal = as.numeric(GDP_data_wide$GDP_cal)
GDP_data_wide$Gross_Domestic_Product = as.numeric(GDP_data_wide$Gross_Domestic_Product)

GDP_data_wide <- GDP_data_wide %>% 
  mutate(Percent_difference = percent((GDP_cal-Gross_Domestic_Product)/GDP_cal))

#differences:
GDP_data_wide %>% 
  select(Country, Year, Percent_difference)

## # A tibble: 10,340 x 3
##    Country     Year  Percent_difference
##    <chr>       <chr> <chr>             
##  1 Afghanistan 1970  -69%              
##  2 Afghanistan 1971  -74%              
##  3 Afghanistan 1972  -51%              
##  4 Afghanistan 1973  -42%              
##  5 Afghanistan 1974  -37%              
##  6 Afghanistan 1975  -38%              
##  7 Afghanistan 1976  -33%              
##  8 Afghanistan 1977  -21%              
##  9 Afghanistan 1978  -23%              
## 10 Afghanistan 1979  -24%              
## # … with 10,330 more rows
…
